[gd_scene load_steps=7 format=2]

[ext_resource path="res://scripts/Storage.gd" type="Script" id=1]
[ext_resource path="res://scenes/Inventory.tscn" type="PackedScene" id=2]
[ext_resource path="res://assets/fbx/low-poly-village/Chest-1-2.fbx" type="PackedScene" id=3]
[ext_resource path="res://assets/fbx/low-poly-village/Chest-1-1.fbx" type="PackedScene" id=4]

[sub_resource type="BoxShape" id=8]
extents = Vector3( 1.52726, 1.18369, 1 )

[sub_resource type="BoxShape" id=9]
extents = Vector3( 1.5, 1.19657, 0.936039 )

[node name="Chest" type="StaticBody" groups=["interactable"]]
transform = Transform( 1, 0, 0, 0, 1, 0, 0, 0, 1, 0, 2.08723, 0 )
collision_layer = 8
collision_mask = 9
script = ExtResource( 1 )

[node name="CollisionShape" type="CollisionShape" parent="."]
transform = Transform( 1, 0, 0, 0, 1, 0, 0, 0, 1, 0, -0.486043, 0 )
shape = SubResource( 8 )

[node name="Closed" parent="." instance=ExtResource( 4 )]
transform = Transform( 2, 0, 0, 0, 2, 0, 0, 0, 2, 0, -0.753226, 0 )

[node name="Open" parent="." instance=ExtResource( 3 )]
transform = Transform( 2, 0, 0, 0, 2, 0, 0, 0, 2, 0, -0.753226, 0 )
visible = false

[node name="Inventory" parent="." instance=ExtResource( 2 )]
visible = false
color = Color( 0, 0, 0, 0.4 )
cell_rows = 2
cell_columns = 3
inventory_x_offset = 3
inventory_y_offset = 1

[node name="ObjectDetector" type="Area" parent="."]
visible = false
collision_layer = 8
collision_mask = 8
monitorable = false

[node name="CollisionShape" type="CollisionShape" parent="ObjectDetector"]
transform = Transform( 1, 0, 0, 0, 1, 0, 0, 0, 1, 0, 0.296234, -0.0211425 )
visible = false
shape = SubResource( 9 )

[connection signal="body_entered" from="ObjectDetector" to="." method="_on_ObjectDetector_body_entered"]
[connection signal="body_exited" from="ObjectDetector" to="." method="_on_ObjectDetector_body_exited"]
