[gd_scene format=2]

[node name="ColorRect" type="ColorRect"]
margin_left = 208.0
margin_top = 232.0
margin_right = 216.0
margin_bottom = 240.0
color = Color( 0.568627, 0.811765, 0.909804, 0.231373 )
__meta__ = {
"_edit_use_anchors_": false
}
